%YAML 1.1
%TAG !u! tag:unity3d.com,2011:
--- !u!162 &1
EditorUserSettings:
  m_ObjectHideFlags: 0
  serializedVersion: 4
  m_ConfigSettings:
    RecentlyUsedSceneGuid-0:
      value: 5a500d5357070f0d0f565a24487a5944414e1c7c752c20677c791c31e1b96d6a
      flags: 0
    RecentlyUsedSceneGuid-1:
      value: 5701070751015059550c5e7749760b4413164c79752c7735297d4f32e4b5316e
      flags: 0
    RecentlyUsedSceneGuid-2:
      value: 5009505e04035c09545c087348720f4415161b287f2970357f7c4930b0b36c6a
      flags: 0
    RecentlyUsedSceneGuid-3:
      value: 5704515007570d5e0f5b0a2114220944144e1a78757b27607e2f4930b2e46168
      flags: 0
    RecentlyUsedSceneGuid-4:
      value: 0106075255540a59090f5c2342775e44444e4c7e2e7174652c791867b0e5616b
      flags: 0
    RecentlyUsedSceneGuid-5:
      value: 5101505754055a0c5e0c0f2741275a44144e1c79287b27612e7f4861b2e1366c
      flags: 0
    RecentlyUsedSceneGuid-6:
      value: 5b05505601045158585655754725064444151e797c2b20327a2c486bbab0376a
      flags: 0
    RecentlyUsedSceneGuid-7:
      value: 5405505053545e0b0e5d5b2715770e4417154d297e2927602e281c36e4b43161
      flags: 0
    RecentlyUsedSceneGuid-8:
      value: 06050c0751515c080e5d592612770e444515417b7e2973357b2a1e6bb2e5376b
      flags: 0
    RecentlyUsedSceneGuid-9:
      value: 515250075c0c595e5f5a5e71122159444e4e4a2f7a7d7f602f284d66b4b76661
      flags: 0
    vcSharedLogLevel:
      value: 0d5e400f0650
      flags: 0
  m_VCAutomaticAdd: 1
  m_VCDebugCom: 0
  m_VCDebugCmd: 0
  m_VCDebugOut: 0
  m_SemanticMergeMode: 2
  m_DesiredImportWorkerCount: 2
  m_StandbyImportWorkerCount: 2
  m_IdleImportWorkerShutdownDelay: 60000
  m_VCShowFailedCheckout: 1
  m_VCOverwriteFailedCheckoutAssets: 1
  m_VCProjectOverlayIcons: 1
  m_VCHierarchyOverlayIcons: 1
  m_VCOtherOverlayIcons: 1
  m_VCAllowAsyncUpdate: 1
  m_ArtifactGarbageCollection: 1
